<svg width="914" height="286" viewBox="0 0 914 286" fill="none" xmlns="http://www.w3.org/2000/svg">
<path d="M213.187 94.2V195H189.715L145.219 141.288V195H117.283V94.2H140.755L185.251 147.912V94.2H213.187ZM284.131 197.016C273.475 197.016 263.875 194.76 255.331 190.248C246.883 185.736 240.211 179.496 235.315 171.528C230.515 163.56 228.115 154.584 228.115 144.6C228.115 134.616 230.515 125.64 235.315 117.672C240.211 109.704 246.883 103.464 255.331 98.952C263.875 94.44 273.475 92.184 284.131 92.184C294.787 92.184 304.339 94.44 312.787 98.952C321.331 103.464 328.003 109.704 332.803 117.672C337.699 125.64 340.147 134.616 340.147 144.6C340.147 154.584 337.699 163.56 332.803 171.528C328.003 179.496 321.331 185.736 312.787 190.248C304.339 194.76 294.787 197.016 284.131 197.016ZM284.131 173.4C289.219 173.4 293.827 172.2 297.955 169.8C302.083 167.4 305.347 164.04 307.747 159.72C310.147 155.304 311.347 150.264 311.347 144.6C311.347 138.936 310.147 133.944 307.747 129.624C305.347 125.208 302.083 121.8 297.955 119.4C293.827 117 289.219 115.8 284.131 115.8C279.043 115.8 274.435 117 270.307 119.4C266.179 121.8 262.915 125.208 260.515 129.624C258.115 133.944 256.915 138.936 256.915 144.6C256.915 150.264 258.115 155.304 260.515 159.72C262.915 164.04 266.179 167.4 270.307 169.8C274.435 172.2 279.043 173.4 284.131 173.4ZM446.088 195L445.8 141.576L419.88 185.064H407.208L381.432 143.016V195H355.08V94.2H378.552L413.976 152.376L448.536 94.2H472.008L472.296 195H446.088ZM560.007 175.416H517.383L509.463 195H480.375L524.871 94.2H552.951L597.591 195H567.927L560.007 175.416ZM551.655 154.392L538.695 122.136L525.735 154.392H551.655ZM605.674 94.2H653.338C664.378 94.2 674.17 96.264 682.714 100.392C691.258 104.52 697.882 110.376 702.586 117.96C707.29 125.544 709.642 134.424 709.642 144.6C709.642 154.776 707.29 163.656 702.586 171.24C697.882 178.824 691.258 184.68 682.714 188.808C674.17 192.936 664.378 195 653.338 195H605.674V94.2ZM652.186 172.248C660.826 172.248 667.738 169.8 672.922 164.904C678.202 160.008 680.842 153.24 680.842 144.6C680.842 135.96 678.202 129.192 672.922 124.296C667.738 119.4 660.826 116.952 652.186 116.952H634.186V172.248H652.186ZM760.067 197.016C751.907 197.016 743.987 196.008 736.307 193.992C728.627 191.976 722.387 189.288 717.587 185.928L726.947 164.904C731.459 167.88 736.691 170.28 742.643 172.104C748.595 173.928 754.451 174.84 760.211 174.84C771.155 174.84 776.627 172.104 776.627 166.632C776.627 163.752 775.043 161.64 771.875 160.296C768.803 158.856 763.811 157.368 756.898 155.832C749.315 154.2 742.979 152.472 737.891 150.648C732.803 148.728 728.435 145.704 724.787 141.576C721.139 137.448 719.314 131.88 719.314 124.872C719.314 118.728 720.995 113.208 724.355 108.312C727.715 103.32 732.707 99.384 739.331 96.504C746.051 93.624 754.259 92.184 763.955 92.184C770.579 92.184 777.107 92.952 783.539 94.488C789.971 95.928 795.635 98.088 800.531 100.968L791.747 122.136C782.147 116.952 772.835 114.36 763.811 114.36C758.147 114.36 754.019 115.224 751.427 116.952C748.835 118.584 747.539 120.744 747.539 123.432C747.539 126.12 749.075 128.136 752.147 129.48C755.219 130.824 760.163 132.216 766.979 133.656C774.659 135.288 780.995 137.064 785.987 138.984C791.075 140.808 795.443 143.784 799.091 147.912C802.835 151.944 804.707 157.464 804.707 164.472C804.707 170.52 803.027 175.992 799.667 180.888C796.307 185.784 791.267 189.72 784.547 192.696C777.827 195.576 769.667 197.016 760.067 197.016Z" fill="#054C62"/>
<circle cx="284" cy="146" r="36" fill="#054C62"/>
<circle cx="284.5" cy="143.5" r="31.5" fill="white"/>
<path d="M284.056 205L257 159H312L284.056 205Z" fill="white"/>
<path d="M284.056 205L257 159H312L284.056 205Z" fill="white"/>
<circle cx="284.5" cy="143.5" r="14.5" fill="#054C62"/>
</svg>
